1 0 1408.000000 1763.000000 8
1 0 1664.000000 1763.000000 8
2 0 3008.000000 1763.000000 8
2 0 4448.000000 2051.000000 8
1 0 3904.000000 2051.000000 8
1 0 4160.000000 2051.000000 8
1 0 4928.000000 2051.000000 8
1 0 5184.000000 2051.000000 8
1 0 4864.000000 1827.000000 8
0 0 5280.000000 1807.000000 8
0 0 5056.000000 1807.000000 8
0 0 4800.000000 1647.000000 8
1 0 4992.000000 1667.000000 8
1 0 4864.000000 1443.000000 8
2 0 5344.000000 1443.000000 8
2 0 7232.000000 1987.000000 8
1 0 7552.000000 1987.000000 8
1 0 6560.000000 2915.000000 8
2 0 6336.000000 2915.000000 8
2 0 9184.000000 2243.000000 8
2 0 8512.000000 2243.000000 8
1 0 8896.000000 2243.000000 8
1 0 8736.000000 2243.000000 8
1 0 10720.000000 2403.000000 8
0 0 10976.000000 2383.000000 8
0 0 11232.000000 2383.000000 8
0 0 11392.000000 2127.000000 8
1 0 11168.000000 2147.000000 8
1 0 11392.000000 1955.000000 8
1 0 12288.000000 2147.000000 8
1 0 12608.000000 2147.000000 8
2 0 12896.000000 2147.000000 8
2 0 13312.000000 2147.000000 8
2 0 13536.000000 1987.000000 8
0 0 13024.000000 1967.000000 8
0 0 13280.000000 1967.000000 8
0 0 11328.000000 3439.000000 8
0 0 11616.000000 3439.000000 8
1 0 11552.000000 3683.000000 8
1 0 11392.000000 1667.000000 8
2 0 11776.000000 1667.000000 8
0 0 14784.000000 2031.000000 8
0 0 15456.000000 1999.000000 8
0 0 15680.000000 1999.000000 8
0 0 13888.000000 2127.000000 8
0 0 8832.000000 2415.000000 8
0 0 9024.000000 2415.000000 8
1 0 9216.000000 2435.000000 8
2 0 14976.000000 2051.000000 8
2 0 16288.000000 2019.000000 8
